PM
SNR values:
-25.00
-24.00
-23.00
-22.00
-21.00
-20.00
-19.00
-18.00
-17.00
-16.00
-15.00
-14.00
-13.00
-12.00
-11.00
-10.00
-9.00
-8.00
-7.00
-6.00
-5.00
-4.00
-3.00
-2.00
-1.00
0.00
1.00
2.00
3.00
4.00
5.00
P values:
0.21
0.26
0.27
0.29
0.32
0.46
0.50
0.42
0.46
0.51
0.62
0.72
0.89
0.98
1.00
1.00
1.00
1.00
1.00
1.00
1.00
1.00
1.00
1.00
1.00
1.00
1.00
1.00
1.00
1.00
1.00

FT
SNR values:
-25.00
-24.00
-23.00
-22.00
-21.00
-20.00
-19.00
-18.00
-17.00
-16.00
-15.00
-14.00
-13.00
-12.00
-11.00
-10.00
-9.00
-8.00
-7.00
-6.00
-5.00
-4.00
-3.00
-2.00
-1.00
0.00
1.00
2.00
3.00
4.00
5.00
P values:
0.21
0.25
0.25
0.34
0.32
0.46
0.43
0.38
0.38
0.55
0.60
0.74
0.86
0.93
1.00
1.00
1.00
1.00
1.00
1.00
1.00
1.00
1.00
1.00
1.00
1.00
1.00
1.00
1.00
1.00
1.00

AM
SNR values:
-25.00
-24.00
-23.00
-22.00
-21.00
-20.00
-19.00
-18.00
-17.00
-16.00
-15.00
-14.00
-13.00
-12.00
-11.00
-10.00
-9.00
-8.00
-7.00
-6.00
-5.00
-4.00
-3.00
-2.00
-1.00
0.00
1.00
2.00
3.00
4.00
5.00
P values:
0.21
0.23
0.25
0.31
0.25
0.41
0.34
0.31
0.33
0.31
0.36
0.41
0.45
0.60
0.58
0.74
0.84
0.90
0.95
0.94
0.99
0.99
1.00
1.00
1.00
1.00
1.00
1.00
1.00
1.00
1.00

